Agent-based modeling for sustainability - 2 Agent-based model programming in R
…
abm <- make_example_learning_abm()

trial <- run_trial(
  abm, 
  partner_selection = success_bias_select_teacher,
  interaction = success_bias_interact, 
  iterate = iterate_learning_model,
  stop = 10
)

# Inspect outputs. 
print(trial$get_observations())

# A tibble: 44 × 4
       t agent Behavior Fitness
   <dbl> <chr> <chr>      <dbl>
 1     0 1     Legacy         1
 2     0 2     Adaptive       4
 3     0 3     Legacy         1
 4     0 4     Legacy         2
 5     1 1     Legacy         2
 6     1 2     Legacy         1
 7     1 3     Adaptive       4
 8     1 4     Legacy         1
 9     2 1     Adaptive       4
10     2 2     Adaptive       4
# ℹ 34 more rows
…
